EntrezID,Symbol,Group,ChIP
92,ACVR2A,T1,TRUE
157,GRK3,T1,TRUE
225,ABCD2,T1,TRUE
288,ANK3,T1,TRUE
301,ANXA1,T1,TRUE
355,FAS,T1,TRUE
535,ATP6V0A1,T1,FALSE
634,CEACAM1,T1,FALSE
753,LDLRAD4,T1,TRUE
868,CBLB,T1,TRUE
928,CD9,T1,FALSE
945,CD33,T1,FALSE
959,CD40LG,T1,TRUE
973,CD79A,T1,FALSE
974,CD79B,T1,FALSE
1235,CCR6,T1,TRUE
1237,CCR8,T1,FALSE
1363,CPE,T1,TRUE
1493,CTLA4,T1,TRUE
1521,CTSW,T1,FALSE
1545,CYP1B1,T1,FALSE
1880,GPR183,T1,TRUE
1947,EFNB1,T1,FALSE
2022,ENG,T1,FALSE
2047,EPHB1,T1,FALSE
2124,EVI2B,T1,TRUE
2153,F5,T1,TRUE
2289,FKBP5,T1,TRUE
2530,FUT8,T1,TRUE
2533,FYB,T1,TRUE
2615,LRRC32,T1,FALSE
2765,GML,T1,FALSE
2814,GP5,T1,FALSE
2841,GPR18,T1,TRUE
2982,GUCY1A3,T1,FALSE
2983,GUCY1B3,T1,FALSE
3001,GZMA,T1,TRUE
3002,GZMB,T1,FALSE
3382,ICA1,T1,TRUE
3460,IFNGR2,T1,TRUE
3554,IL1R1,T1,FALSE
3559,IL2RA,T1,TRUE
3570,IL6R,T1,FALSE
3575,IL7R,T1,TRUE
3655,ITGA6,T1,TRUE
3672,ITGA1,T1,FALSE
3673,ITGA2,T1,TRUE
3684,ITGAM,T1,FALSE
3717,JAK2,T1,TRUE
3732,CD82,T1,FALSE
3786,KCNQ3,T1,FALSE
3958,LGALS3,T1,FALSE
4033,LRMP,T1,TRUE
4067,LYN,T1,FALSE
4162,MCAM,T1,FALSE
4189,DNAJB9,T1,FALSE
4240,MFGE8,T1,FALSE
4600,MX2,T1,FALSE
4818,NKG7,T1,FALSE
4846,NOS3,T1,FALSE
4907,NT5E,T1,TRUE
4925,NUCB2,T1,TRUE
4940,OAS3,T1,FALSE
5023,P2RX1,T1,FALSE
5026,P2RX5,T1,FALSE
5140,PDE3B,T1,TRUE
5213,PFKM,T1,FALSE
5336,PLCG2,T1,FALSE
5359,PLSCR1,T1,FALSE
5578,PRKCA,T1,TRUE
5733,PTGER3,T1,TRUE
5787,PTPRB,T1,TRUE
5796,PTPRK,T1,TRUE
5924,RASGRF2,T1,TRUE
5997,RGS2,T1,TRUE
6272,SORT1,T1,FALSE
6403,SELP,T1,TRUE
6472,SHMT2,T1,FALSE
6575,SLC20A2,T1,TRUE
6717,SRI,T1,TRUE
6809,STX3,T1,TRUE
6812,STXBP1,T1,FALSE
6967,TRGC2,T1,TRUE
7006,TEC,T1,TRUE
7097,TLR2,T1,TRUE
7122,CLDN5,T1,FALSE
7133,TNFRSF1B,T1,TRUE
7782,SLC30A4,T1,TRUE
8313,AXIN2,T1,TRUE
8477,GPR65,T1,TRUE
8573,CASK,T1,TRUE
8600,TNFSF11,T1,FALSE
8611,PLPP1,T1,FALSE
8743,TNFSF10,T1,TRUE
8751,ADAM15,T1,TRUE
8774,NAPG,T1,FALSE
8776,MTMR1,T1,FALSE
8792,TNFRSF11A,T1,TRUE
8828,NRP2,T1,FALSE
9200,HACD1,T1,FALSE
9263,STK17A,T1,TRUE
9331,B4GALT6,T1,FALSE
9545,RAB3D,T1,FALSE
9706,ULK2,T1,FALSE
9976,CLEC2B,T1,TRUE
10100,TSPAN2,T1,TRUE
10207,PATJ,T1,TRUE
10252,SPRY1,T1,TRUE
10396,ATP8A1,T1,TRUE
10673,TNFSF13B,T1,FALSE
10800,CYSLTR1,T1,TRUE
11001,SLC27A2,T1,FALSE
11031,RAB31,T1,TRUE
11314,CD300A,T1,TRUE
22836,RHOBTB3,T1,TRUE
22839,DLGAP4,T1,FALSE
22914,KLRK1,T1,FALSE
23208,SYT11,T1,FALSE
23316,CUX2,T1,TRUE
23555,TSPAN15,T1,FALSE
23654,PLXNB2,T1,FALSE
25945,NECTIN3,T1,FALSE
25956,SEC31B,T1,TRUE
28232,SLCO3A1,T1,TRUE
28526,TRDC,T1,TRUE
29126,CD274,T1,FALSE
30061,SLC40A1,T1,FALSE
50615,IL21R,T1,FALSE
51097,SCCPDH,T1,FALSE
51599,LSR,T1,FALSE
51744,CD244,T1,FALSE
54910,SEMA4C,T1,FALSE
54947,LPCAT2,T1,FALSE
54997,TESC,T1,FALSE
55255,WDR41,T1,FALSE
55283,MCOLN3,T1,FALSE
55356,SLC22A15,T1,FALSE
55501,CHST12,T1,FALSE
55512,SMPD3,T1,TRUE
55784,MCTP2,T1,TRUE
55974,SLC50A1,T1,FALSE
56605,ERO1B,T1,FALSE
56913,C1GALT1,T1,FALSE
57130,ATP13A1,T1,FALSE
57134,MAN1C1,T1,TRUE
57198,ATP8B2,T1,TRUE
57205,ATP10D,T1,FALSE
57476,GRAMD1B,T1,FALSE
64065,PERP,T1,FALSE
64400,AKTIP,T1,FALSE
64782,AEN,T1,TRUE
64855,FAM129B,T1,FALSE
79690,GAL3ST4,T1,FALSE
79820,CATSPERB,T1,FALSE
79895,ATP8B4,T1,TRUE
79901,CYBRD1,T1,FALSE
80005,DOCK5,T1,FALSE
80380,PDCD1LG2,T1,TRUE
83464,APH1B,T1,FALSE
83959,SLC4A11,T1,FALSE
89801,PPP1R3F,T1,TRUE
91584,PLXNA4,T1,TRUE
113451,AZIN2,T1,TRUE
115727,RASGRP4,T1,TRUE
120425,JAML,T1,TRUE
123036,TC2N,T1,TRUE
131450,CD200R1,T1,TRUE
161582,DNAAF4,T1,FALSE
201158,TVP23C,T1,TRUE
203427,SLC25A43,T1,FALSE
253782,CERS6,T1,TRUE
255231,MCOLN2,T1,TRUE
255324,EPGN,T1,FALSE
259293,TAS2R30,T1,FALSE
285704,RGMB,T1,TRUE
338596,ST8SIA6,T1,TRUE
342372,PKD1L3,T1,FALSE
399,RHOH,T2,TRUE
1132,CHRM4,T2,FALSE
1543,CYP1A1,T2,TRUE
1839,HBEGF,T2,TRUE
3274,HRH2,T2,TRUE
4040,LRP6,T2,TRUE
4792,NFKBIA,T2,TRUE
4952,OCRL,T2,FALSE
5027,P2RX7,T2,TRUE
5328,PLAU,T2,FALSE
5366,PMAIP1,T2,TRUE
5734,PTGER4,T2,TRUE
6482,ST3GAL1,T2,TRUE
6513,SLC2A1,T2,FALSE
6566,SLC16A1,T2,TRUE
7124,TNF,T2,TRUE
7430,EZR,T2,TRUE
8111,GPR68,T2,TRUE
10018,BCL2L11,T2,TRUE
10333,TLR6,T2,FALSE
10397,NDRG1,T2,TRUE
10927,SPIN1,T2,FALSE
26119,LDLRAP1,T2,FALSE
27202,C5AR2,T2,FALSE
30844,EHD4,T2,TRUE
51301,GCNT4,T2,FALSE
55343,SLC35C1,T2,FALSE
57228,SMAGP,T2,FALSE
57761,TRIB3,T2,FALSE
57835,SLC4A5,T2,FALSE
79815,NIPAL2,T2,FALSE
114789,SLC25A25,T2,TRUE
116843,SLC18B1,T2,TRUE
157506,RDH10,T2,TRUE
259289,TAS2R43,T2,FALSE
135,ADORA2A,T3,FALSE
356,FASLG,T3,TRUE
1604,CD55,T3,TRUE
1901,S1PR1,T3,TRUE
1948,EFNB2,T3,TRUE
3556,IL1RAP,T3,TRUE
3845,KRAS,T3,FALSE
4345,CD200,T3,FALSE
4739,NEDD9,T3,TRUE
5133,PDCD1,T3,FALSE
5168,ENPP2,T3,TRUE
5294,PIK3CG,T3,TRUE
5321,PLA2G4A,T3,TRUE
5358,PLS3,T3,FALSE
5743,PTGS2,T3,FALSE
5873,RAB27A,T3,TRUE
6503,SLA,T3,TRUE
7048,TGFBR2,T3,TRUE
8353,HIST1H3E,T3,TRUE
8526,DGKE,T3,FALSE
8645,KCNK5,T3,FALSE
8698,S1PR4,T3,FALSE
8702,B4GALT4,T3,FALSE
8807,IL18RAP,T3,TRUE
9173,IL1RL1,T3,TRUE
9663,LPIN2,T3,TRUE
10666,CD226,T3,TRUE
10947,AP3M2,T3,TRUE
26031,OSBPL3,T3,TRUE
27242,TNFRSF21,T3,FALSE
50640,PNPLA8,T3,FALSE
54968,TMEM70,T3,TRUE
56253,CRTAM,T3,TRUE
57552,NCEH1,T3,FALSE
64114,TMBIM1,T3,TRUE
79056,PRRG4,T3,FALSE
79772,MCTP1,T3,TRUE
84002,B3GNT5,T3,TRUE
91147,TMEM67,T3,FALSE
94120,SYTL3,T3,TRUE
114836,SLAMF6,T3,TRUE
135228,CD109,T3,TRUE
151888,BTLA,T3,TRUE
152559,PAQR3,T3,FALSE
166929,SGMS2,T3,FALSE
201633,TIGIT,T3,TRUE
257364,SNX33,T3,TRUE
729230,CCR2,T3,TRUE
100130733,LRRC70,T3,FALSE
93,ACVR2B,T4,FALSE
360,AQP3,T4,FALSE
444,ASPH,T4,TRUE
585,BBS4,T4,TRUE
664,BNIP3,T4,FALSE
672,BRCA1,T4,FALSE
1062,CENPE,T4,TRUE
1524,CX3CR1,T4,FALSE
1844,DUSP2,T4,TRUE
1894,ECT2,T4,TRUE
2114,ETS2,T4,TRUE
2207,FCER1G,T4,FALSE
2241,FER,T4,FALSE
2591,GALNT3,T4,TRUE
2739,GLO1,T4,TRUE
2790,GNG10,T4,FALSE
3161,HMMR,T4,TRUE
3384,ICAM2,T4,TRUE
3560,IL2RB,T4,TRUE
3824,KLRD1,T4,TRUE
4049,LTA,T4,TRUE
4296,MAP3K11,T4,TRUE
4436,MSH2,T4,FALSE
4712,NDUFB6,T4,TRUE
5291,PIK3CB,T4,FALSE
5293,PIK3CD,T4,FALSE
5610,EIF2AK2,T4,FALSE
5729,PTGDR,T4,TRUE
5770,PTPN1,T4,TRUE
5791,PTPRE,T4,TRUE
5874,RAB27B,T4,FALSE
5921,RASA1,T4,TRUE
5926,ARID4A,T4,TRUE
6009,RHEB,T4,FALSE
6261,RYR1,T4,TRUE
6391,SDHC,T4,FALSE
6596,HLTF,T4,FALSE
6976,TRGV3,T4,TRUE
7188,TRAF5,T4,TRUE
7272,TTK,T4,FALSE
7293,TNFRSF4,T4,FALSE
7444,VRK2,T4,FALSE
7852,CXCR4,T4,TRUE
8356,HIST1H3J,T4,TRUE
8434,RECK,T4,FALSE
8604,SLC25A12,T4,FALSE
8787,RGS9,T4,TRUE
8793,TNFRSF10D,T4,TRUE
8808,IL1RL2,T4,TRUE
9120,SLC16A6,T4,TRUE
9321,TRIP11,T4,FALSE
9488,PIGB,T4,FALSE
9497,SLC4A7,T4,FALSE
9694,EMC2,T4,FALSE
9765,ZFYVE16,T4,FALSE
9928,KIF14,T4,TRUE
10043,TOM1,T4,FALSE
10253,SPRY2,T4,FALSE
10282,BET1,T4,FALSE
10403,NDC80,T4,TRUE
11311,VPS45,T4,TRUE
11320,MGAT4A,T4,TRUE
22863,ATG14,T4,TRUE
23171,GPD1L,T4,FALSE
23380,SRGAP2,T4,TRUE
23421,ITGB3BP,T4,TRUE
23461,ABCA5,T4,FALSE
23586,DDX58,T4,FALSE
26136,TES,T4,FALSE
26511,CHIC2,T4,TRUE
29071,C1GALT1C1,T4,FALSE
29929,ALG6,T4,FALSE
29957,SLC25A24,T4,FALSE
30832,ZNF354C,T4,FALSE
51000,SLC35B3,T4,FALSE
51449,PCYOX1,T4,TRUE
51704,GPRC5B,T4,FALSE
53346,TM6SF1,T4,FALSE
54477,PLEKHA5,T4,FALSE
54499,TMCO1,T4,FALSE
54664,TMEM106B,T4,TRUE
54941,RNF125,T4,TRUE
55227,LRRC1,T4,TRUE
55331,ACER3,T4,FALSE
55610,VPS50,T4,FALSE
55704,CCDC88A,T4,FALSE
55972,SLC25A40,T4,FALSE
56992,KIF15,T4,FALSE
57605,PITPNM2,T4,TRUE
57678,GPAM,T4,FALSE
64801,ARV1,T4,TRUE
79071,ELOVL6,T4,TRUE
79867,TCTN2,T4,FALSE
80184,CEP290,T4,FALSE
80329,ULBP1,T4,FALSE
80856,LNPK,T4,FALSE
81930,KIF18A,T4,FALSE
83540,NUF2,T4,TRUE
83990,BRIP1,T4,FALSE
84100,ARL6,T4,FALSE
84272,YIPF4,T4,TRUE
84318,CCDC77,T4,FALSE
89122,TRIM4,T4,FALSE
92255,LMBRD2,T4,FALSE
95681,CEP41,T4,FALSE
123606,NIPA1,T4,FALSE
131118,DNAJC19,T4,FALSE
145389,SLC38A6,T4,TRUE
153129,SLC38A9,T4,FALSE
157657,C8orf37,T4,FALSE
192670,AGO4,T4,FALSE
221264,AK9,T4,FALSE
255520,ELMOD2,T4,FALSE
259290,TAS2R31,T4,FALSE
259294,TAS2R19,T4,FALSE
286148,DPY19L4,T4,FALSE
286205,SCAI,T4,TRUE
353135,LCE1E,T4,FALSE
27,ABL2,T5,TRUE
159,ADSS,T5,TRUE
182,JAG1,T5,FALSE
306,ANXA3,T5,FALSE
493,ATP2B4,T5,TRUE
528,ATP6V1C1,T5,FALSE
843,CASP10,T5,TRUE
889,KRIT1,T5,FALSE
909,CD1A,T5,FALSE
911,CD1C,T5,FALSE
965,CD58,T5,TRUE
983,CDK1,T5,TRUE
1368,CPM,T5,FALSE
1503,CTPS1,T5,FALSE
1739,DLG1,T5,FALSE
1836,SLC26A2,T5,FALSE
1992,SERPINB1,T5,TRUE
2571,GAD1,T5,TRUE
2650,GCNT1,T5,TRUE
2770,GNAI1,T5,FALSE
2820,GPD2,T5,TRUE
3181,HNRNPA2B1,T5,TRUE
3738,KCNA3,T5,TRUE
3759,KCNJ2,T5,FALSE
4124,MAN2A1,T5,FALSE
4301,AFDN,T5,TRUE
5054,SERPINE1,T5,FALSE
5251,PHEX,T5,FALSE
5287,PIK3C2B,T5,TRUE
5295,PIK3R1,T5,TRUE
5727,PTCH1,T5,TRUE
5739,PTGIR,T5,FALSE
5898,RALA,T5,FALSE
6059,ABCE1,T5,FALSE
6565,SLC15A2,T5,FALSE
6675,UAP1,T5,FALSE
6732,SRPK1,T5,TRUE
7049,TGFBR3,T5,TRUE
8323,FZD6,T5,TRUE
8418,CMAHP,T5,TRUE
8496,PPFIBP1,T5,TRUE
8832,CD84,T5,TRUE
8973,CHRNA6,T5,TRUE
9208,LRRFIP1,T5,TRUE
9290,GPR55,T5,TRUE
9429,ABCG2,T5,FALSE
9495,AKAP5,T5,FALSE
9886,RHOBTB1,T5,TRUE
9953,HS3ST3B1,T5,TRUE
10440,TIMM17A,T5,FALSE
10606,PAICS,T5,FALSE
10979,FERMT2,T5,FALSE
11126,CD160,T5,FALSE
11154,AP4S1,T5,FALSE
11215,AKAP11,T5,TRUE
23022,PALLD,T5,TRUE
23095,KIF1B,T5,FALSE
23143,LRCH1,T5,TRUE
23682,RAB38,T5,FALSE
25780,RASGRP3,T5,TRUE
25805,BAMBI,T5,FALSE
26003,GORASP2,T5,FALSE
27000,DNAJC2,T5,FALSE
27071,DAPP1,T5,FALSE
27198,HCAR1,T5,TRUE
27333,GOLIM4,T5,TRUE
27334,P2RY10,T5,FALSE
29078,NDUFAF4,T5,FALSE
29909,GPR171,T5,TRUE
29933,GPR132,T5,FALSE
29967,LRP12,T5,FALSE
51023,MRPS18C,T5,FALSE
51430,SUCO,T5,TRUE
51678,MPP6,T5,FALSE
55183,RIF1,T5,FALSE
55212,BBS7,T5,TRUE
55706,NDC1,T5,FALSE
57048,PLSCR3,T5,FALSE
57121,LPAR5,T5,FALSE
57531,HACE1,T5,TRUE
57575,PCDH10,T5,FALSE
57584,ARHGAP21,T5,FALSE
57650,KIAA1524,T5,TRUE
57669,EPB41L5,T5,TRUE
65977,PLEKHA3,T5,FALSE
79156,PLEKHF1,T5,TRUE
79649,MAP7D3,T5,FALSE
83930,STARD3NL,T5,TRUE
84275,SLC25A33,T5,FALSE
84668,FAM126A,T5,TRUE
84803,GPAT3,T5,FALSE
85465,SELENOI,T5,FALSE
92906,HNRNPLL,T5,TRUE
93663,ARHGAP18,T5,TRUE
124460,SNX20,T5,FALSE
129401,NUP35,T5,FALSE
130367,SGPP2,T5,FALSE
137682,NDUFAF6,T5,TRUE
154141,MBOAT1,T5,TRUE
200894,ARL13B,T5,TRUE
259230,SGMS1,T5,TRUE
374383,NCR3LG1,T5,FALSE
399694,SHC4,T5,TRUE
113,ADCY7,A1,TRUE
177,AGER,A1,FALSE
214,ALCAM,A1,TRUE
388,RHOB,A1,FALSE
483,ATP1B3,A1,FALSE
488,ATP2A2,A1,TRUE
490,ATP2B1,A1,TRUE
526,ATP6V1B2,A1,TRUE
622,BDH1,A1,FALSE
687,KLF9,A1,TRUE
699,BUB1,A1,FALSE
788,SLC25A20,A1,FALSE
818,CAMK2G,A1,FALSE
924,CD7,A1,FALSE
941,CD80,A1,TRUE
944,TNFSF8,A1,TRUE
969,CD69,A1,TRUE
970,CD70,A1,FALSE
1269,CNR2,A1,FALSE
1435,CSF1,A1,FALSE
1595,CYP51A1,A1,TRUE
1612,DAPK1,A1,TRUE
1656,DDX6,A1,TRUE
1718,DHCR24,A1,FALSE
2012,EMP1,A1,FALSE
2043,EPHA4,A1,TRUE
2534,FYN,A1,TRUE
2643,GCH1,A1,TRUE
2651,GCNT2,A1,TRUE
2669,GEM,A1,FALSE
2870,GRK6,A1,FALSE
3099,HK2,A1,FALSE
3140,MR1,A1,TRUE
3164,NR4A1,A1,FALSE
3301,DNAJA1,A1,FALSE
3309,HSPA5,A1,FALSE
3557,IL1RN,A1,FALSE
3572,IL6ST,A1,FALSE
3587,IL10RA,A1,TRUE
3595,IL12RB2,A1,TRUE
3603,IL16,A1,TRUE
3604,TNFRSF9,A1,TRUE
3662,IRF4,A1,TRUE
3685,ITGAV,A1,TRUE
3696,ITGB8,A1,FALSE
3702,ITK,A1,TRUE
3799,KIF5B,A1,FALSE
3832,KIF11,A1,TRUE
3903,LAIR1,A1,TRUE
3937,LCP2,A1,FALSE
4000,LMNA,A1,FALSE
4088,SMAD3,A1,TRUE
4245,MGAT1,A1,TRUE
4248,MGAT3,A1,FALSE
4277,MICB,A1,FALSE
4354,MPP1,A1,FALSE
4363,ABCC1,A1,TRUE
4729,NDUFV2,A1,TRUE
4758,NEU1,A1,FALSE
4891,SLC11A2,A1,TRUE
5028,P2RY1,A1,FALSE
5270,SERPINE2,A1,FALSE
5272,SERPINB9,A1,FALSE
5335,PLCG1,A1,TRUE
5547,PRCP,A1,TRUE
5557,PRIM1,A1,FALSE
5606,MAP2K3,A1,FALSE
5621,PRNP,A1,FALSE
5800,PTPRO,A1,TRUE
5901,RAN,A1,FALSE
5996,RGS1,A1,TRUE
6385,SDC4,A1,FALSE
6386,SDCBP,A1,TRUE
6398,SECTM1,A1,FALSE
6509,SLC1A4,A1,FALSE
6510,SLC1A5,A1,FALSE
6526,SLC5A3,A1,FALSE
6541,SLC7A1,A1,FALSE
6609,SMPD1,A1,FALSE
6647,SOD1,A1,FALSE
6713,SQLE,A1,FALSE
6843,VAMP1,A1,TRUE
7037,TFRC,A1,FALSE
7132,TNFRSF1A,A1,FALSE
7294,TXK,A1,TRUE
7357,UGCG,A1,TRUE
7525,YES1,A1,TRUE
7532,YWHAG,A1,FALSE
7727,ZNF174,A1,FALSE
7903,ST8SIA4,A1,TRUE
7976,FZD3,A1,FALSE
8140,SLC7A5,A1,FALSE
8266,UBL4A,A1,FALSE
8352,HIST1H3C,A1,TRUE
8355,HIST1H3G,A1,TRUE
8482,SEMA7A,A1,FALSE
8676,STX11,A1,TRUE
8740,TNFSF14,A1,TRUE
8744,TNFSF9,A1,FALSE
8809,IL18R1,A1,TRUE
8844,KSR1,A1,TRUE
8867,SYNJ1,A1,FALSE
8875,VNN2,A1,TRUE
9043,SPAG9,A1,TRUE
9076,CLDN1,A1,FALSE
9101,USP8,A1,FALSE
9188,DDX21,A1,FALSE
9308,CD83,A1,FALSE
9363,RAB33A,A1,TRUE
9466,IL27RA,A1,FALSE
9516,LITAF,A1,TRUE
9643,MORF4L2,A1,FALSE
9665,MARF1,A1,FALSE
9693,RAPGEF2,A1,TRUE
9695,EDEM1,A1,TRUE
9725,TMEM63A,A1,TRUE
9750,RIPOR2,A1,TRUE
9781,RNF144A,A1,TRUE
9882,TBC1D4,A1,TRUE
9934,P2RY14,A1,TRUE
10239,AP3S2,A1,FALSE
10385,BTN2A2,A1,TRUE
10513,APPBP2,A1,FALSE
10560,SLC19A2,A1,FALSE
10663,CXCR6,A1,FALSE
10678,B3GNT2,A1,TRUE
10750,GRAP,A1,FALSE
10767,HBS1L,A1,TRUE
10892,MALT1,A1,TRUE
10938,EHD1,A1,FALSE
11004,KIF2C,A1,TRUE
11264,PXMP4,A1,FALSE
11276,SYNRG,A1,TRUE
22918,CD93,A1,FALSE
23002,DAAM1,A1,TRUE
23175,LPIN1,A1,TRUE
23411,SIRT1,A1,FALSE
23507,LRRC8B,A1,TRUE
23526,ARHGAP45,A1,FALSE
23533,PIK3R5,A1,TRUE
23560,GTPBP4,A1,FALSE
23645,PPP1R15A,A1,FALSE
25778,DSTYK,A1,FALSE
26191,PTPN22,A1,TRUE
26503,SLC17A5,A1,TRUE
27075,TSPAN13,A1,FALSE
27128,CYTH4,A1,TRUE
27161,AGO2,A1,TRUE
27235,COQ2,A1,FALSE
27240,SIT1,A1,FALSE
28969,BZW2,A1,TRUE
29851,ICOS,A1,TRUE
29990,PILRB,A1,FALSE
50624,CUZD1,A1,FALSE
50831,TAS2R3,A1,FALSE
50832,TAS2R4,A1,TRUE
50838,TAS2R13,A1,FALSE
50839,TAS2R10,A1,FALSE
50840,TAS2R14,A1,TRUE
51063,CALHM2,A1,FALSE
51068,NMD3,A1,FALSE
51225,ABI3,A1,FALSE
51318,MRPL35,A1,FALSE
51411,BIN2,A1,TRUE
51429,SNX9,A1,TRUE
51512,GTSE1,A1,FALSE
51726,DNAJB11,A1,FALSE
54206,ERRFI1,A1,FALSE
54331,GNG2,A1,TRUE
54498,SMOX,A1,TRUE
54509,RHOF,A1,TRUE
54623,PAF1,A1,FALSE
54814,QPCTL,A1,FALSE
54900,LAX1,A1,TRUE
54918,CMTM6,A1,TRUE
54934,KANSL2,A1,FALSE
55173,MRPS10,A1,FALSE
55245,UQCC1,A1,FALSE
55529,TMEM55A,A1,FALSE
55824,PAG1,A1,TRUE
55829,SELENOS,A1,TRUE
55846,ITFG2,A1,FALSE
56262,LRRC8A,A1,TRUE
56882,CDC42SE1,A1,FALSE
56895,AGPAT4,A1,FALSE
57171,DOLPP1,A1,FALSE
57559,STAMBPL1,A1,TRUE
57620,STIM2,A1,TRUE
58480,RHOU,A1,FALSE
58515,SELENOK,A1,FALSE
60673,ATG101,A1,FALSE
64108,RTP4,A1,FALSE
64151,NCAPG,A1,FALSE
80273,GRPEL1,A1,FALSE
80709,AKNA,A1,TRUE
80833,APOL3,A1,FALSE
81034,SLC25A32,A1,FALSE
81491,GPR63,A1,FALSE
81562,LMAN2L,A1,TRUE
81614,NIPA2,A1,FALSE
81619,TSPAN14,A1,TRUE
83666,PARP9,A1,FALSE
83874,TBC1D10A,A1,TRUE
84418,CYSTM1,A1,TRUE
84557,MAP1LC3A,A1,FALSE
84879,MFSD2A,A1,FALSE
84946,LTV1,A1,FALSE
91663,MYADM,A1,FALSE
91782,CHMP7,A1,FALSE
92162,TMEM88,A1,TRUE
93129,ORAI3,A1,FALSE
113540,CMTM1,A1,FALSE
115752,DIS3L,A1,FALSE
117584,RFFL,A1,TRUE
128486,FITM2,A1,FALSE
149371,EXOC8,A1,FALSE
163882,CNST,A1,TRUE
170850,KCNG3,A1,FALSE
196513,DCP1B,A1,FALSE
222236,NAPEPLD,A1,TRUE
259296,TAS2R50,A1,FALSE
285464,CRIPAK,A1,FALSE
374403,TBC1D10C,A1,FALSE
388121,TNFAIP8L3,A1,FALSE
